<svg xmlns="http://www.w3.org/2000/svg" width="717" height="652" viewBox="0 0 717 652">
    <path fill="#F1F7FB" fill-rule="evenodd" d="M390.768 93.895c.695-.075 1.39-.165 2.082-.271 3.438-19.018-18.378-38.082-31.519-48.18-16.888-12.976-39.243-26.032-58.958-33.947-3.73-1.499-7.572-3.302-11.577-3.925-3.755-.584-7.528-1.566-11.192-2.547-8.088-2.167-16.955-3.848-25.386-3.772-3.96.035-7.962.18-11.918.045-5.772-.201-11.532-1.07-17.305-1.242-5.058-.148-10.152.048-15.215.017-5.969-.035-11.8 1.004-17.72 1.624-5.57.58-10.907 2.12-16.354 3.4-5.522 1.298-11.054 2.553-16.581 3.831-5.443 1.259-11.024 2.178-16.352 3.882-5.184 1.658-10.396 3.102-15.613 4.665-3.17.949-6.093 2.325-9.15 3.558-1.11.45-2.608.656-3.56 1.435-.674.55-.857 1.073-1.702 1.496-.856.428-1.855.542-2.69.995-1.329.722-2.291 1.69-3.824 2.11-3.133.857-5.578 2.156-8.282 3.962-1.031.688-2.046 1.411-3.092 2.076-1.206.768-2.367.95-3.647 1.51-2.486 1.089-4.734 2.737-7.276 3.78-1.161.478-2.301.88-3.443 1.402-1.096.501-1.881 1.233-2.923 1.785-2.05 1.085-3.807 2.567-5.764 3.904-2.54 1.735-4.988 3.398-7.43 5.303-1.88 1.467-3.864 2.867-5.372 4.727-1.055 1.303-2.048 2.42-3.506 3.273-3.928 2.3-7.389 5.117-11.005 7.885-5.907 4.525-11.301 9.515-16.47 14.892a178.34 178.34 0 0 0-16.79 20.282C5.26 110.248-2.111 118.205-7.271 127.13c-4.084 7.07-7.502 14.756-11.188 22.057-4.152 8.222-7.241 16.985-9.972 25.79-5.54 17.858-8.185 36.439-10.456 54.95-1.22 9.955-1.116 19.683-1.106 29.702.009 9.954-.043 19.792.787 29.723.815 9.718 2.079 19.373 2.866 29.092.886 10.964 3.576 21.364 5.825 32.075 8.021 38.172 22.32 74.85 41.786 108.43 10.433 18.001 20.977 36.162 34.263 52.125 6.584 7.91 12.548 16.06 19.833 23.332 8.076 8.055 15.24 16.911 24.152 24.059 15.237 12.222 30.976 23.643 46.896 34.89 7.804 5.512 16.584 8.859 24.922 13.38 4.242 2.302 8.353 4.908 12.573 7.263 6.893 3.85 13.783 6.452 21.05 9.44 10 4.11 19.45 9.09 29.756 12.416 10.234 3.3 20.561 6.156 30.936 8.959 18.857 5.096 38.639 5.235 57.973 6.25 11.058.58 21.95 1.354 33.037.665 10.604-.655 21.068-1.867 31.592-3.298 22.359-3.04 43.972-10.48 65.402-17.265 17.855-5.654 35.365-12.522 52.285-20.676 8.206-3.955 16.767-6.64 25.042-10.365 8.152-3.666 15.414-8.212 23.1-12.746 3.636-2.144 7.467-3.782 11.205-5.7 5.026-2.58 9.127-5.93 13.586-9.389 10.42-8.077 20.238-16.63 31.04-24.348 7.457-5.329 13.63-11.881 20.49-17.936 5.442-4.804 11.27-9.32 16.125-14.773 5.315-5.968 9.444-12.973 14.868-18.8 5.947-6.389 10.658-13.317 16.43-19.819 4.461-5.026 8.692-10.279 12.042-16.12 4.43-7.725 9.464-15.69 12.99-23.852 3.069-7.105 6.444-14.47 8.538-21.918 2.421-8.615 5.89-16.417 7.347-25.305 1.367-8.333 3.39-16.345 4.44-24.775 1.123-9.029 3.407-17.732 3.633-26.897.206-8.304.27-16.79.031-25.082-.138-4.824-1.637-9.017-2.226-13.75-.579-4.653-.344-9.164-1.318-13.817-1.494-7.146-4.007-13.85-5.991-20.826-2.215-7.786-3.336-15.91-6.476-23.413-5.75-13.743-12.559-26.669-21.884-38.309-3.687-4.599-7.314-9.388-11.754-13.319-4.279-3.786-9.71-6.558-14.284-10.067-5.917-4.538-12.496-7.204-18.803-11.07-7.435-4.556-15.389-7.981-23.712-10.635-36.042-11.492-67.714-17.305-105.256-21.16-37.148-3.815-76.362-6.685-112.172-17.72-30.245-9.325-67.54-25.524-92.004-45.76 29.91-.617 60.192 24.263 89.801 21.076"/>
</svg>
